^C:\USERS\SEBASTIAN\DESKTOP\MATERIALY NA UCZELNIE\GK\SPRAWOZDANIE1\SPRAWOZDANIE 1\SPRAWOZDANIE 1\STDAFX.CPP
C:\USERS\SEBASTIAN\DESKTOP\MATERIALY NA UCZELNIE\GK\SPRAWOZDANIE1\SPRAWOZDANIE 1\SPRAWOZDANIE 1\DEBUG\SPRAWOZDANIE 1.PCH
C:\USERS\SEBASTIAN\DESKTOP\MATERIALY NA UCZELNIE\GK\SPRAWOZDANIE1\SPRAWOZDANIE 1\SPRAWOZDANIE 1\DEBUG\VC140.PDB
C:\USERS\SEBASTIAN\DESKTOP\MATERIALY NA UCZELNIE\GK\SPRAWOZDANIE1\SPRAWOZDANIE 1\SPRAWOZDANIE 1\DEBUG\VC140.IDB
C:\USERS\SEBASTIAN\DESKTOP\MATERIALY NA UCZELNIE\GK\SPRAWOZDANIE1\SPRAWOZDANIE 1\SPRAWOZDANIE 1\DEBUG\STDAFX.OBJ
^C:\USERS\SEBASTIAN\DESKTOP\MATERIALY NA UCZELNIE\GK\SPRAWOZDANIE1\SPRAWOZDANIE 1\SPRAWOZDANIE 1\SPRAWOZDANIE 1.CPP
C:\USERS\SEBASTIAN\DESKTOP\MATERIALY NA UCZELNIE\GK\SPRAWOZDANIE1\SPRAWOZDANIE 1\SPRAWOZDANIE 1\DEBUG\VC140.PDB
C:\USERS\SEBASTIAN\DESKTOP\MATERIALY NA UCZELNIE\GK\SPRAWOZDANIE1\SPRAWOZDANIE 1\SPRAWOZDANIE 1\DEBUG\VC140.IDB
C:\USERS\SEBASTIAN\DESKTOP\MATERIALY NA UCZELNIE\GK\SPRAWOZDANIE1\SPRAWOZDANIE 1\SPRAWOZDANIE 1\DEBUG\SPRAWOZDANIE 1.OBJ
